%YAML 1.1
%TAG !u! tag:unity3d.com,2011:
--- !u!114 &11400000
MonoBehaviour:
  m_ObjectHideFlags: 0
  m_CorrespondingSourceObject: {fileID: 0}
  m_PrefabInstance: {fileID: 0}
  m_PrefabAsset: {fileID: 0}
  m_GameObject: {fileID: 0}
  m_Enabled: 1
  m_EditorHideFlags: 0
  m_Script: {fileID: 11500000, guid: d5a679b8640d04834b4f09b8c6adec7a, type: 3}
  m_Name: IronSourceMediationSettings
  m_EditorClassIdentifier: 
  AndroidAppKey: '114f93e3d '
  IOSAppKey: '114f93e3d '
  EnableIronsourceSDKInitAPI: 0
  AddIronsourceSkadnetworkID: 0
  EnableAdapterDebug: 0
  EnableIntegrationHelper: 0
