%YAML 1.1
%TAG !u! tag:unity3d.com,2011:
--- !u!21 &2100000
Material:
  serializedVersion: 6
  m_ObjectHideFlags: 0
  m_CorrespondingSourceObject: {fileID: 0}
  m_PrefabInstance: {fileID: 0}
  m_PrefabAsset: {fileID: 0}
  m_Name: dotted_plate
  m_Shader: {fileID: 4800000, guid: 39863a74ba34d9a47a33d8789651486d, type: 3}
  m_ShaderKeywords: 
  m_LightmapFlags: 4
  m_EnableInstancingVariants: 0
  m_DoubleSidedGI: 0
  m_CustomRenderQueue: -1
  stringTagMap: {}
  disabledShaderPasses: []
  m_SavedProperties:
    serializedVersion: 3
    m_TexEnvs:
    - _MainTex:
        m_Texture: {fileID: 2800000, guid: 7c375756c147a9f4cbd5803f6673a039, type: 3}
        m_Scale: {x: 1, y: 1}
        m_Offset: {x: 0, y: 0}
    m_Floats:
    - _AlphaX: 1
    - _AlphaY: 1
    - _BumpScale: 1
    - _Cutoff: 0.5
    - _DetailNormalMapScale: 1
    - _DstBlend: 0
    - _GlossMapScale: 1
    - _Glossiness: 0.5
    - _GlossyReflections: 1
    - _Metallic: 0
    - _Mode: 0
    - _OcclusionStrength: 1
    - _Parallax: 0.02
    - _RampSmooth: 0.001
    - _RampSmoothOtherLights: 0.5
    - _RampThreshold: 0.505
    - _RampThresholdOtherLights: 0.5
    - _RimMax: 1
    - _RimMin: 0.5
    - _ShadeMax: 1
    - _ShadeMin: 0.606
    - _Shadow_HSV_H: 16
    - _Shadow_HSV_S: 0
    - _Shadow_HSV_V: 0
    - _Shininess: 0
    - _Smoothness: 0.2
    - _SmoothnessTextureChannel: 0
    - _SpecularHighlights: 1
    - _SrcBlend: 1
    - _UVSec: 0
    - _ZWrite: 1
    - __dummy__: 0
    m_Colors:
    - _Color: {r: 1, g: 1, b: 1, a: 1}
    - _EmissionColor: {r: 0, g: 0, b: 0, a: 1}
    - _HColor: {r: 1, g: 1, b: 1, a: 1}
    - _HighliteColor: {r: 0, g: 0, b: 0, a: 0}
    - _RimColor: {r: 0.8, g: 0.8, b: 0.8, a: 0.6}
    - _SColor: {r: 0.5196378, g: 0.9056604, b: 0.37166253, a: 0.8784314}
    - _ShadeColor: {r: 0.8207547, g: 0.8013973, b: 0.8078498, a: 0.5}
    - _ShadowColor: {r: 0.6011926, g: 0.6128115, b: 0.6603774, a: 0}
    - _SpecColor: {r: 0.41509432, g: 0.40076956, b: 0.20950516, a: 1}
    - _SpecularColor: {r: 1, g: 1, b: 1, a: 1}
    - _TintColor: {r: 0.5849056, g: 0.5296954, b: 0.4607511, a: 1}
    - _VariationColor: {r: 1, g: 1, b: 1, a: 1}
