%YAML 1.1
%TAG !u! tag:unity3d.com,2011:
--- !u!21 &2100000
Material:
  serializedVersion: 6
  m_ObjectHideFlags: 0
  m_CorrespondingSourceObject: {fileID: 0}
  m_PrefabInstance: {fileID: 0}
  m_PrefabAsset: {fileID: 0}
  m_Name: Wall 1
  m_Shader: {fileID: 4800000, guid: ccfc7d68845db8341944b3091b59be55, type: 3}
  m_ShaderKeywords: 
  m_LightmapFlags: 4
  m_EnableInstancingVariants: 1
  m_DoubleSidedGI: 0
  m_CustomRenderQueue: -1
  stringTagMap: {}
  disabledShaderPasses: []
  m_SavedProperties:
    serializedVersion: 3
    m_TexEnvs:
    - _BumpMap:
        m_Texture: {fileID: 0}
        m_Scale: {x: 1, y: 1}
        m_Offset: {x: 0, y: 0}
    - _DissolveTex:
        m_Texture: {fileID: 0}
        m_Scale: {x: 1, y: 1}
        m_Offset: {x: 0, y: 0}
    - _MainTex:
        m_Texture: {fileID: 0}
        m_Scale: {x: 1, y: 1}
        m_Offset: {x: 0, y: 0}
    - _Ramp:
        m_Texture: {fileID: 2800000, guid: abc83c21d57d4a74cabe12065fa1a8b2, type: 3}
        m_Scale: {x: 1, y: 1}
        m_Offset: {x: 0, y: 0}
    - _RampTex:
        m_Texture: {fileID: 2800000, guid: b84b593bbc33273459b307d8a10213cf, type: 3}
        m_Scale: {x: 1, y: 1}
        m_Offset: {x: 0, y: 0}
    m_Floats:
    - _Ambient: 0
    - _Amount: 0
    - _BumpScale: 1
    - _Cutoff: 0.5
    - _DetailNormalMapScale: 1
    - _DstBlend: 0
    - _GlossMapScale: 1
    - _Glossiness: 0.5
    - _GlossyReflections: 1
    - _Metallic: 0
    - _Mode: 0
    - _OcclusionStrength: 1
    - _Parallax: 0.02
    - _RampSmooth: 0.1
    - _RampThreshold: 0.5
    - _SmoothnessTextureChannel: 0
    - _SpecularHighlights: 1
    - _SrcBlend: 1
    - _UVSec: 0
    - _Wrap: 1
    - _ZWrite: 1
    m_Colors:
    - _Color: {r: 0.7735849, g: 0.5527583, b: 0.3466536, a: 1}
    - _EmissionColor: {r: 0, g: 0, b: 0, a: 1}
    - _HColor: {r: 1, g: 1, b: 1, a: 1}
    - _OutlineColor: {r: 1, g: 1, b: 1, a: 1}
    - _SColor: {r: 0.9245283, g: 0.7534051, b: 0.6933962, a: 1}
